"{\"response\":{\"status\":\"ok\",\"userTier\":\"developer\",\"total\":194,\"startIndex\":1,\"pageSize\":10,\"currentPage\":1,\"pages\":20,\"orderBy\":\"relevance\",\"results\":[{\"id\":\"music/2015/aug/31/sturgill-simpson-country-music-reluctant-saviour-metamodern-sounds-interview\",\"type\":\"article\",\"sectionId\":\"music\",\"sectionName\":\"Music\",\"webPublicationDate\":\"2015-08-31T16:51:11Z\",\"webTitle\":\"Sturgill Simpson: 'People think I pour LSD on my Cheerios'\",\"webUrl\":\"https://www.theguardian.com/music/2015/aug/31/sturgill-simpson-country-music-reluctant-saviour-metamodern-sounds-interview\",\"apiUrl\":\"https://content.guardianapis.com/music/2015/aug/31/sturgill-simpson-country-music-reluctant-saviour-metamodern-sounds-interview\",\"isHosted\":false},{\"id\":\"media/video/2014/jul/25/ad-break-cheerios-meteor-kfc-eharmony-video\",\"type\":\"video\",\"sectionId\":\"media\",\"sectionName\":\"Media\",\"webPublicationDate\":\"2014-07-25T09:57:00Z\",\"webTitle\":\"Ad break: Cheerios, Meteor, KFC, eHarmony – video\",\"webUrl\":\"https://www.theguardian.com/media/video/2014/jul/25/ad-break-cheerios-meteor-kfc-eharmony-video\",\"apiUrl\":\"https://content.guardianapis.com/media/video/2014/jul/25/ad-break-cheerios-meteor-kfc-eharmony-video\",\"isHosted\":false},{\"id\":\"media/2014/jul/25/ad-break-cheerios-celebrates-fathers-and-meteor-engages-our-brains\",\"type\":\"article\",\"sectionId\":\"media\",\"sectionName\":\"Media\",\"webPublicationDate\":\"2014-07-25T10:58:59Z\",\"webTitle\":\"Ad break: Cheerios fathers Meteor engages brains kfc\",\"webUrl\":\"https://www.theguardian.com/media/2014/jul/25/ad-break-cheerios-celebrates-fathers-and-meteor-engages-our-brains\",\"apiUrl\":\"https://content.guardianapis.com/media/2014/jul/25/ad-break-cheerios-celebrates-fathers-and-meteor-engages-our-brains\",\"isHosted\":false},{\"id\":\"sustainable-business/cheerios-general-mills-gmo-genetically-modified-food\",\"type\":\"article\",\"sectionId\":\"sustainable-business\",\"sectionName\":\"Guardian Sustainable Business\",\"webPublicationDate\":\"2014-02-19T16:00:00Z\",\"webTitle\":\"Why are food activists targeting Honey Nut Cheerios?\",\"webUrl\":\"https://www.theguardian.com/sustainable-business/cheerios-general-mills-gmo-genetically-modified-food\",\"apiUrl\":\"https://content.guardianapis.com/sustainable-business/cheerios-general-mills-gmo-genetically-modified-food\",\"isHosted\":false},{\"id\":\"world/2014/jan/30/msnbc-tweet-republican-rightwing-outrage\",\"type\":\"article\",\"sectionId\":\"world\",\"sectionName\":\"World news\",\"webPublicationDate\":\"2014-01-30T19:48:15Z\",\"webTitle\":\"Running out of mud to sling, Republicans turn to … Cheerios\",\"webUrl\":\"https://www.theguardian.com/world/2014/jan/30/msnbc-tweet-republican-rightwing-outrage\",\"apiUrl\":\"https://content.guardianapis.com/world/2014/jan/30/msnbc-tweet-republican-rightwing-outrage\",\"isHosted\":false},{\"id\":\"world/oliver-burkeman-s-blog/2013/sep/09/syria-strikes-cheerios-war-theory\",\"type\":\"article\",\"sectionId\":\"world\",\"sectionName\":\"World news\",\"webPublicationDate\":\"2013-09-09T18:18:54Z\",\"webTitle\":\"The Cheerios theory of the Syria strikes, or why war metaphors really matter | Oliver Burkeman\",\"webUrl\":\"https://www.theguardian.com/world/oliver-burkeman-s-blog/2013/sep/09/syria-strikes-cheerios-war-theory\",\"apiUrl\":\"https://content.guardianapis.com/world/oliver-burkeman-s-blog/2013/sep/09/syria-strikes-cheerios-war-theory\",\"isHosted\":false},{\"id\":\"lifeandstyle/australia-food-blog/2015/jul/07/the-return-of-childish-things-cafes-that-specialise-in-toast-and-cereal-milk\",\"type\":\"article\",\"sectionId\":\"lifeandstyle\",\"sectionName\":\"Life and style\",\"webPublicationDate\":\"2015-07-07T00:45:47Z\",\"webTitle\":\"The return of childish things: cafes that specialise in toast and cereal milk\",\"webUrl\":\"https://www.theguardian.com/lifeandstyle/australia-food-blog/2015/jul/07/the-return-of-childish-things-cafes-that-specialise-in-toast-and-cereal-milk\",\"apiUrl\":\"https://content.guardianapis.com/lifeandstyle/australia-food-blog/2015/jul/07/the-return-of-childish-things-cafes-that-specialise-in-toast-and-cereal-milk\",\"isHosted\":false},{\"id\":\"sustainable-business/2014/jul/28/general-mills-climate-change-lobbying-suppliers-kelloggs-oxfam\",\"type\":\"article\",\"sectionId\":\"sustainable-business\",\"sectionName\":\"Guardian Sustainable Business\",\"webPublicationDate\":\"2014-07-28T22:02:37Z\",\"webTitle\":\"General Mills joins climate change fight and requires pledges from suppliers too\",\"webUrl\":\"https://www.theguardian.com/sustainable-business/2014/jul/28/general-mills-climate-change-lobbying-suppliers-kelloggs-oxfam\",\"apiUrl\":\"https://content.guardianapis.com/sustainable-business/2014/jul/28/general-mills-climate-change-lobbying-suppliers-kelloggs-oxfam\",\"isHosted\":false},{\"id\":\"music/2014/nov/13/usher-on-michael-jackson-justin-bieber-and-the-struggle-to-stay-a-superstar\",\"type\":\"article\",\"sectionId\":\"music\",\"sectionName\":\"Music\",\"webPublicationDate\":\"2014-11-13T18:00:09Z\",\"webTitle\":\"Usher on Michael Jackson, Justin Bieber and the struggle to stay a superstar\",\"webUrl\":\"https://www.theguardian.com/music/2014/nov/13/usher-on-michael-jackson-justin-bieber-and-the-struggle-to-stay-a-superstar\",\"apiUrl\":\"https://content.guardianapis.com/music/2014/nov/13/usher-on-michael-jackson-justin-bieber-and-the-struggle-to-stay-a-superstar\",\"isHosted\":false},{\"id\":\"lifeandstyle/2016/jun/22/cheerio-challenge-instagram-babies-fatherhood-photos-meme\",\"type\":\"article\",\"sectionId\":\"lifeandstyle\",\"sectionName\":\"Life and style\",\"webPublicationDate\":\"2016-06-22T18:38:18Z\",\"webTitle\":\"The #CheeriosChallenge message to dads: you can still be an idiot after fatherhood\",\"webUrl\":\"https://www.theguardian.com/lifeandstyle/2016/jun/22/cheerio-challenge-instagram-babies-fatherhood-photos-meme\",\"apiUrl\":\"https://content.guardianapis.com/lifeandstyle/2016/jun/22/cheerio-challenge-instagram-babies-fatherhood-photos-meme\",\"isHosted\":false}]}}"